{"refs":[{"ref":"/apis/projects/by-slug/ai_fish_tank.json","rel":"item","name":"ai_fish_tank","status":"active"},{"ref":"/apis/projects/by-slug/ai_shell.json","rel":"item","name":"ai_shell","status":"archived"},{"ref":"/apis/projects/by-slug/always_free.json","rel":"item","name":"always_free","status":"archived"},{"ref":"/apis/projects/by-slug/bash2gitlab.json","rel":"item","name":"bash2gitlab","status":"active"},{"ref":"/apis/projects/by-slug/bash_logging_with_timer.json","rel":"item","name":"bash_logging_with_timer","status":"active"},{"ref":"/apis/projects/by-slug/bills_with_nlp.json","rel":"item","name":"bills_with_nlp","status":"archived"},{"ref":"/apis/projects/by-slug/bitrab.json","rel":"item","name":"bitrab","status":"active"},{"ref":"/apis/projects/by-slug/blog.json","rel":"item","name":"blog","status":"active"},{"ref":"/apis/projects/by-slug/blog_comments.json","rel":"item","name":"blog_comments","status":"active"},{"ref":"/apis/projects/by-slug/break_in_to_it.json","rel":"item","name":"break_in_to_it","status":"archived"},{"ref":"/apis/projects/by-slug/bug_trail.json","rel":"item","name":"bug_trail","status":"active"},{"ref":"/apis/projects/by-slug/bug_trail_core.json","rel":"item","name":"bug_trail_core","status":"active"},{"ref":"/apis/projects/by-slug/c7n_make.json","rel":"item","name":"c7n_make","status":"active"},{"ref":"/apis/projects/by-slug/caniuseonlywheels.json","rel":"item","name":"caniuseonlywheels","status":"archived"},{"ref":"/apis/projects/by-slug/chatgpt_presentation.json","rel":"item","name":"chatgpt_presentation","status":"archived"},{"ref":"/apis/projects/by-slug/cheese_grader.json","rel":"item","name":"cheese_grader","status":"archived"},{"ref":"/apis/projects/by-slug/cli_tool_audit.json","rel":"item","name":"cli_tool_audit","status":"active"},{"ref":"/apis/projects/by-slug/convenient_py_devcontainer.json","rel":"item","name":"convenient_py_devcontainer","status":"archived"},{"ref":"/apis/projects/by-slug/dashc.json","rel":"item","name":"dashc","status":"active"},{"ref":"/apis/projects/by-slug/dedlin.json","rel":"item","name":"dedlin","status":"active"},{"ref":"/apis/projects/by-slug/disemoji.json","rel":"item","name":"disemoji","status":"active"},{"ref":"/apis/projects/by-slug/examexam.json","rel":"item","name":"examexam","status":"active"},{"ref":"/apis/projects/by-slug/examexam_exams.json","rel":"item","name":"examexam_exams","status":"active"},{"ref":"/apis/projects/by-slug/falling_food.json","rel":"item","name":"falling_food","status":"active"},{"ref":"/apis/projects/by-slug/feed_thing.json","rel":"item","name":"feed_thing","status":"archived"},{"ref":"/apis/projects/by-slug/fermi_problems.json","rel":"item","name":"fermi_problems","status":"active"},{"ref":"/apis/projects/by-slug/find_known_secrets.json","rel":"item","name":"find_known_secrets","status":"active"},{"ref":"/apis/projects/by-slug/fish_tanks.json","rel":"item","name":"fish_tanks","status":"archived"},{"ref":"/apis/projects/by-slug/gh_status.json","rel":"item","name":"gh_status","status":"active"},{"ref":"/apis/projects/by-slug/git_help.json","rel":"item","name":"git_help","status":"active"},{"ref":"/apis/projects/by-slug/git_mirror.json","rel":"item","name":"git_mirror","status":"active"},{"ref":"/apis/projects/by-slug/gizskyon.json","rel":"item","name":"gizskyon","status":"archived"},{"ref":"/apis/projects/by-slug/hermetic.json","rel":"item","name":"hermetic","status":"active"},{"ref":"/apis/projects/by-slug/Hicmah.json","rel":"item","name":"Hicmah","status":"active"},{"ref":"/apis/projects/by-slug/hissbytenotation.json","rel":"item","name":"hissbytenotation","status":"active"},{"ref":"/apis/projects/by-slug/interview_challenges.json","rel":"item","name":"interview_challenges","status":"active"},{"ref":"/apis/projects/by-slug/is_it_up.json","rel":"item","name":"is_it_up","status":"archived"},{"ref":"/apis/projects/by-slug/isopod_angular.json","rel":"item","name":"isopod_angular","status":"archived"},{"ref":"/apis/projects/by-slug/isopod_cob.json","rel":"item","name":"isopod_cob","status":"archived"},{"ref":"/apis/projects/by-slug/isopod_cpp.json","rel":"item","name":"isopod_cpp","status":"archived"},{"ref":"/apis/projects/by-slug/isopod_django.json","rel":"item","name":"isopod_django","status":"archived"},{"ref":"/apis/projects/by-slug/isopod_go.json","rel":"item","name":"isopod_go","status":"archived"},{"ref":"/apis/projects/by-slug/isopod_javasb.json","rel":"item","name":"isopod_javasb","status":"archived"},{"ref":"/apis/projects/by-slug/isopod_js.json","rel":"item","name":"isopod_js","status":"archived"},{"ref":"/apis/projects/by-slug/isopod_ruby.json","rel":"item","name":"isopod_ruby","status":"archived"},{"ref":"/apis/projects/by-slug/isopod_rust.json","rel":"item","name":"isopod_rust","status":"archived"},{"ref":"/apis/projects/by-slug/isopod_shell.json","rel":"item","name":"isopod_shell","status":"archived"},{"ref":"/apis/projects/by-slug/jiggle_version.json","rel":"item","name":"jiggle_version","status":"active"},{"ref":"/apis/projects/by-slug/json_kata.json","rel":"item","name":"json_kata","status":"active"},{"ref":"/apis/projects/by-slug/kata-python.json","rel":"item","name":"kata-python","status":"active"}],"meta":{"type":"projects","page":1,"page_size":50,"pages":3,"total":108},"_links":[{"rel":"self","href":"/apis/projects/pages/1.json","type":"application/json"},{"rel":"collection","href":"/apis/projects/index.json","type":"application/json"},{"rel":"first","href":"/apis/projects/pages/1.json","type":"application/json"},{"rel":"last","href":"/apis/projects/pages/3.json","type":"application/json"},{"rel":"next","href":"/apis/projects/pages/2.json","type":"application/json"},{"rel":"describedby","href":"/apis/openapi.yaml","type":"text/yaml"}]}