{"refs":[{"ref":"/apis/projects/by-slug/untruncate_json.json","rel":"item","name":"untruncate_json","status":"active"},{"ref":"/apis/projects/by-slug/us_copyright.json","rel":"item","name":"us_copyright","status":"active"},{"ref":"/apis/projects/by-slug/useful_scripts.json","rel":"item","name":"useful_scripts","status":"active"},{"ref":"/apis/projects/by-slug/vacay.json","rel":"item","name":"vacay","status":"active"},{"ref":"/apis/projects/by-slug/what_is_matt_doing.json","rel":"item","name":"what_is_matt_doing","status":"active"},{"ref":"/apis/projects/by-slug/whats_that_code.json","rel":"item","name":"whats_that_code","status":"active"},{"ref":"/apis/projects/by-slug/who_are_you.json","rel":"item","name":"who_are_you","status":"archived"},{"ref":"/apis/projects/by-slug/whose_module.json","rel":"item","name":"whose_module","status":"archived"},{"ref":"/apis/projects/by-slug/xkcd_random.json","rel":"item","name":"xkcd_random","status":"active"}],"meta":{"type":"projects","page":3,"page_size":50,"pages":3,"total":109},"_links":[{"rel":"self","href":"/apis/projects/pages/3.json","type":"application/json"},{"rel":"collection","href":"/apis/projects/index.json","type":"application/json"},{"rel":"first","href":"/apis/projects/pages/1.json","type":"application/json"},{"rel":"last","href":"/apis/projects/pages/3.json","type":"application/json"},{"rel":"prev","href":"/apis/projects/pages/2.json","type":"application/json"},{"rel":"describedby","href":"/apis/openapi.yaml","type":"text/yaml"}]}